waves/blockgen.vcd
$date
	Thu Jul 10 10:13:30 2025
$end
$version
	Icarus Verilog
$end
$timescale
	10ps
$end
$scope module blockgen_tb $end
$var reg 3 ! current_state [2:0] $end
$scope module dut $end
$var wire 3 " current_state [2:0] $end
$var reg 660 # display_array [659:0] $end
$upscope $end
$scope begin $ivl_for_loop0 $end
$var integer 32 $ s [31:0] $end
$upscope $end
$upscope $end
$enddefinitions $end
$comment Show the parameter values. $end
$dumpall
$end
#0
$dumpvars
b0 $
b11000000000000000000000000000011000000000000000000000000000011000000000000000000000000000011000000000000 #
b0 "
b0 !
$end
#100000000
b110110000000000000000000000000110110000000000000 #
b1 !
b1 "
b1 $
#200000000
b111111000000000000000000000000000111000000000000000000000000000111000000000000 #
b10 !
b10 "
b10 $
#300000000
b1001000000000000000000000000001000000000000000000000000000001000000000000000 #
b11 !
b11 "
b11 $
#400000000
b10010000000000000000000000010010000000000000000 #
b100 !
b100 "
b100 $
#500000000
b100100000000000000000000000000000100100000000000000 #
b101 !
b101 "
b101 $
#600000000
b101101101000000000000000000000000101000000000000 #
b110 !
b110 "
b110 $
#700000000
b111 $
