waves/counter.vcd
$date
	Thu Jul 10 09:38:57 2025
$end
$version
	Icarus Verilog
$end
$timescale
	10ps
$end
$scope module counter_tb $end
$var wire 1 ! button_i $end
$var wire 3 " state [2:0] $end
$var wire 3 # counter [2:0] $end
$var reg 1 $ button $end
$var reg 1 % clk $end
$var reg 1 & nrst $end
$scope module count $end
$var wire 1 ! button_i $end
$var wire 1 % clk $end
$var wire 3 ' counter_o [2:0] $end
$var wire 3 ( current_state_o [2:0] $end
$var wire 1 & nRst_i $end
$var wire 1 ) strobe $end
$var reg 3 * counter [2:0] $end
$var reg 3 + current_state [2:0] $end
$var reg 3 , latched_value [2:0] $end
$var reg 1 - sync_ff1 $end
$var reg 1 . sync_ff2 $end
$upscope $end
$scope task tog_nRst $end
$upscope $end
$upscope $end
$enddefinitions $end
$comment Show the parameter values. $end
$dumpall
$end
#0
$dumpvars
0.
0-
b0 ,
b100 +
b0 *
0)
b100 (
b0 '
0&
0%
x$
b0 #
b100 "
z!
$end
#100000000
x)
z-
b1 #
b1 '
b1 *
1$
1&
1%
#200000000
0$
0%
#300000000
b10 #
b10 '
b10 *
z.
1%
#400000000
0)
0.
0-
b0 #
b0 '
b0 *
0%
0&
#500000000
x)
b1 #
b1 '
b1 *
z-
1%
1$
1&
#600000000
0%
#700000000
z.
b10 #
b10 '
b10 *
1%
#800000000
0%
#900000000
b11 #
b11 '
b11 *
1%
0$
#1000000000
0%
1$
#1100000000
b100 #
b100 '
b100 *
1%
#1200000000
0%
0$
#1300000000
b101 #
b101 '
b101 *
1%
#1400000000
0%
#1500000000
b110 #
b110 '
b110 *
1%
1$
