waves/t01_ai_pool.vcd
$date
	Thu Jul 24 13:47:57 2025
$end
$version
	Icarus Verilog
$end
$timescale
	1s
$end
$scope module tb_t01_ai_pool $end
$var wire 50 ! output_map [49:0] $end
$var wire 1 " done $end
$var parameter 32 # C_WIDTH $end
$var parameter 32 $ K_WIDTH $end
$var parameter 32 % MAP_H $end
$var parameter 32 & MAP_W $end
$var parameter 32 ' S_WIDTH $end
$var reg 1 ( clk $end
$var reg 200 ) feature_map [199:0] $end
$var reg 1 * pool_en $end
$var reg 1 + pool_valid $end
$var reg 1 , rst $end
$scope function print_input_map $end
$var integer 32 - c [31:0] $end
$var integer 32 . r [31:0] $end
$upscope $end
$scope function print_output_map $end
$var integer 32 / c [31:0] $end
$var integer 32 0 r [31:0] $end
$upscope $end
$scope module dut $end
$var wire 1 ( clk $end
$var wire 200 1 feature_map [199:0] $end
$var wire 1 * pool_en $end
$var wire 1 + pool_valid $end
$var wire 1 , rst $end
$var parameter 32 2 C_WIDTH $end
$var parameter 32 3 K_WIDTH $end
$var parameter 32 4 MAP_H $end
$var parameter 32 5 MAP_W $end
$var parameter 32 6 S_WIDTH $end
$var reg 32 7 col_inx [31:0] $end
$var reg 1 " done $end
$var reg 2 8 max_inx [1:0] $end
$var reg 50 9 output_map [49:0] $end
$var reg 32 : row_inx [31:0] $end
$var reg 4 ; window [3:0] $end
$var reg 2 < window_inx [1:0] $end
$upscope $end
$scope task reset_dut $end
$upscope $end
$scope task run_pooling $end
$var integer 32 = i [31:0] $end
$upscope $end
$upscope $end
$enddefinitions $end
$comment Show the parameter values. $end
$dumpall
b100 6
b1010 5
b10100 4
b100 3
b11 2
b100 '
b1010 &
b10100 %
b100 $
b11 #
$end
#0
$dumpvars
bx =
b0 <
b0 ;
b0 :
b0 9
b0 8
b0 7
b0 1
bx 0
bx /
bx .
bx -
1,
0+
0*
b0 )
0(
0"
b0 !
$end
#5
1(
#10
0(
#15
b1 <
b1101 ;
1+
1*
b1001001111101111001111001001010100001101110111001010011010100110001111011000001100110000101000110110101110110101100001000011111111010110010111101011100110100010000011010000100011001000111111100110001 )
b1001001111101111001111001001010100001101110111001010011010100110001111011000001100110000101000110110101110110101100001000011111111010110010111101011100110100010000011010000100011001000111111100110001 1
b11001000 =
0,
1(
#20
0(
#25
b10 <
b10 8
1(
#30
0(
#35
b11 <
1(
#40
0(
#45
b10 7
b0 8
b0 <
b1 !
b1 9
1(
#50
0(
#55
b1 <
b1100 ;
1(
#60
0(
#65
b10 <
b10 8
1(
#70
0(
#75
b11 <
1(
#80
0(
#85
b100 7
b0 8
b0 <
b11 !
b11 9
1(
#90
0(
#95
b1 <
b111 ;
1(
#100
0(
#105
b10 <
b1 8
1(
#110
0(
#115
b11 <
b10 8
1(
#120
0(
#125
b110 7
b0 8
b0 <
b111 !
b111 9
1(
#130
0(
#135
b1 <
b0 ;
1(
#140
0(
#145
b10 <
b1 8
1(
#150
0(
#155
b11 <
b10 8
1(
#160
0(
#165
b1000 7
b0 8
b0 <
1(
#170
0(
#175
b1 <
b111 ;
1(
#180
0(
#185
b10 <
b1 8
1(
#190
0(
#195
b11 <
b10 8
1(
#200
0(
#205
b10 :
b0 7
b0 8
b0 <
b10111 !
b10111 9
1(
#210
0(
#215
b1 <
b1010 ;
1(
#220
0(
#225
b10 <
b1 8
1(
#230
0(
#235
b11 <
b11 8
1(
#240
0(
#245
b10 7
b0 8
b0 <
b110111 !
b110111 9
1(
#250
0(
#255
b1 <
b1 8
b1001 ;
1(
#260
0(
#265
b10 <
1(
#270
0(
#275
b11 <
b11 8
1(
#280
0(
#285
b100 7
b0 8
b0 <
b1110111 !
b1110111 9
1(
#290
0(
#295
b1 <
b100 ;
1(
#300
0(
#305
b10 <
b10 8
1(
#310
0(
#315
b11 <
1(
#320
0(
#325
b110 7
b0 8
b0 <
b11110111 !
b11110111 9
1(
#330
0(
#335
b1 <
b1 ;
1(
#340
0(
#345
b10 <
b1 8
1(
#350
0(
#355
b11 <
b10 8
1(
#360
0(
#365
b1000 7
b0 8
b0 <
1(
#370
0(
#375
b1 <
b0 ;
1(
#380
0(
#385
b10 <
b1 8
1(
#390
0(
#395
b11 <
b10 8
1(
#400
0(
#405
b100 :
b0 7
b0 8
b0 <
1(
#410
0(
#415
b1 <
b1101 ;
1(
#420
0(
#425
b10 <
b10 8
1(
#430
0(
#435
b11 <
1(
#440
0(
#445
b10 7
b0 8
b0 <
b10011110111 !
b10011110111 9
1(
#450
0(
#455
b1 <
b100 ;
1(
#460
0(
#465
b10 <
b10 8
1(
#470
0(
#475
b11 <
1(
#480
0(
#485
b100 7
b0 8
b0 <
b110011110111 !
b110011110111 9
1(
#490
0(
#495
b1 <
b101 ;
1(
#500
0(
#505
b10 <
b10 8
1(
#510
0(
#515
b11 <
1(
#520
0(
#525
b110 7
b0 8
b0 <
b1110011110111 !
b1110011110111 9
1(
#530
0(
#535
b1 <
b1111 ;
1(
#540
0(
#545
b10 <
b1 8
1(
#550
0(
#555
b11 <
b10 8
1(
#560
0(
#565
b1000 7
b0 8
b0 <
b11110011110111 !
b11110011110111 9
1(
#570
0(
#575
b1 <
b1100 ;
1(
#580
0(
#585
b10 <
b10 8
1(
#590
0(
#595
b11 <
1(
#600
0(
#605
b110 :
b0 7
b0 8
b0 <
b111110011110111 !
b111110011110111 9
1(
#610
0(
#615
b1 <
b1110 ;
1(
#620
0(
#625
b10 <
b1 8
1(
#630
0(
#635
b11 <
b10 8
1(
#640
0(
#645
b10 7
b0 8
b0 <
b1111110011110111 !
b1111110011110111 9
1(
#650
0(
#655
b1 <
b1 8
b1100 ;
1(
#660
0(
#665
b10 <
b10 8
1(
#670
0(
#675
b11 <
1(
#680
0(
#685
b100 7
b0 8
b0 <
b11111110011110111 !
b11111110011110111 9
1(
#690
0(
#695
b1 <
b1111 ;
1(
#700
0(
#705
b10 <
b1 8
1(
#710
0(
#715
b11 <
b10 8
1(
#720
0(
#725
b110 7
b0 8
b0 <
b111111110011110111 !
b111111110011110111 9
1(
#730
0(
#735
b1 <
b110 ;
1(
#740
0(
#745
b10 <
b1 8
1(
#750
0(
#755
b11 <
b10 8
1(
#760
0(
#765
b1000 7
b0 8
b0 <
b1111111110011110111 !
b1111111110011110111 9
1(
#770
0(
#775
b1 <
b1 8
b10 ;
1(
#780
0(
#785
b10 <
1(
#790
0(
#795
b11 <
b10 8
1(
#800
0(
#805
b1000 :
b0 7
b0 8
b0 <
1(
#810
0(
#815
b1 <
b1 8
b1010 ;
1(
#820
0(
#825
b10 <
1(
#830
0(
#835
b11 <
b11 8
1(
#840
0(
#845
b10 7
b0 8
b0 <
b101111111110011110111 !
b101111111110011110111 9
1(
#850
0(
#855
b1 <
b1 8
b100 ;
1(
#860
0(
#865
b10 <
b10 8
1(
#870
0(
#875
b11 <
1(
#880
0(
#885
b100 7
b0 8
b0 <
b1101111111110011110111 !
b1101111111110011110111 9
1(
#890
0(
#895
b1 <
b1100 ;
1(
#900
0(
#905
b10 <
b10 8
1(
#910
0(
#915
b11 <
1(
#920
0(
#925
b110 7
b0 8
b0 <
b11101111111110011110111 !
b11101111111110011110111 9
1(
#930
0(
#935
b1 <
b111 ;
1(
#940
0(
#945
b10 <
b1 8
1(
#950
0(
#955
b11 <
b10 8
1(
#960
0(
#965
b1000 7
b0 8
b0 <
b111101111111110011110111 !
b111101111111110011110111 9
1(
#970
0(
#975
b1 <
b110 ;
1(
#980
0(
#985
b10 <
b1 8
1(
#990
0(
#995
b11 <
b10 8
1(
#1000
0(
#1005
b1010 :
b0 7
b0 8
b0 <
b1111101111111110011110111 !
b1111101111111110011110111 9
1(
#1010
0(
#1015
b1 <
b1 8
b111 ;
1(
#1020
0(
#1025
b10 <
1(
#1030
0(
#1035
b11 <
b10 8
1(
#1040
0(
#1045
b10 7
b0 8
b0 <
b11111101111111110011110111 !
b11111101111111110011110111 9
1(
#1050
0(
#1055
b1 <
b10 ;
1(
#1060
0(
#1065
b10 <
b1 8
1(
#1070
0(
#1075
b11 <
b10 8
1(
#1080
0(
#1085
b100 7
b0 8
b0 <
1(
#1090
0(
#1095
b1 <
b1 8
b1001 ;
1(
#1100
0(
#1105
b10 <
1(
#1110
0(
#1115
b11 <
b11 8
1(
#1120
0(
#1125
b110 7
b0 8
b0 <
b1011111101111111110011110111 !
b1011111101111111110011110111 9
1(
#1130
0(
#1135
b1 <
b100 ;
1(
#1140
0(
#1145
b10 <
b10 8
1(
#1150
0(
#1155
b11 <
1(
#1160
0(
#1165
b1000 7
b0 8
b0 <
b11011111101111111110011110111 !
b11011111101111111110011110111 9
1(
#1170
0(
#1175
b1 <
b1001 ;
1(
#1180
0(
#1185
b10 <
b1 8
1(
#1190
0(
#1195
b11 <
b11 8
1(
#1200
0(
#1205
b1100 :
b0 7
b0 8
b0 <
b111011111101111111110011110111 !
b111011111101111111110011110111 9
1(
#1210
0(
#1215
b1 <
b1101 ;
1(
#1220
0(
#1225
b10 <
b10 8
1(
#1230
0(
#1235
b11 <
1(
#1240
0(
#1245
b10 7
b0 8
b0 <
b1111011111101111111110011110111 !
b1111011111101111111110011110111 9
1(
#1250
0(
#1255
b1 <
b100 ;
1(
#1260
0(
#1265
b10 <
b10 8
1(
#1270
0(
#1275
b11 <
1(
#1280
0(
#1285
b100 7
b0 8
b0 <
b11111011111101111111110011110111 !
b11111011111101111111110011110111 9
1(
#1290
0(
#1295
b1 <
b0 ;
1(
#1300
0(
#1305
b10 <
b1 8
1(
#1310
0(
#1315
b11 <
b10 8
1(
#1320
0(
#1325
b110 7
b0 8
b0 <
1(
#1330
0(
#1335
b1 <
b1111 ;
1(
#1340
0(
#1345
b10 <
b1 8
1(
#1350
0(
#1355
b11 <
b10 8
1(
#1360
0(
#1365
b1000 7
b0 8
b0 <
b1011111011111101111111110011110111 !
b1011111011111101111111110011110111 9
1(
#1370
0(
#1375
b1 <
b10 ;
1(
#1380
0(
#1385
b10 <
b1 8
1(
#1390
0(
#1395
b11 <
b10 8
1(
#1400
0(
#1405
b1110 :
b0 7
b0 8
b0 <
1(
#1410
0(
#1415
b1 <
b1 8
b101 ;
1(
#1420
0(
#1425
b10 <
b10 8
1(
#1430
0(
#1435
b11 <
1(
#1440
0(
#1445
b10 7
b0 8
b0 <
b101011111011111101111111110011110111 !
b101011111011111101111111110011110111 9
1(
#1450
0(
#1455
b1 <
b1001 ;
1(
#1460
0(
#1465
b10 <
b1 8
1(
#1470
0(
#1475
b11 <
b11 8
1(
#1480
0(
#1485
b100 7
b0 8
b0 <
b1101011111011111101111111110011110111 !
b1101011111011111101111111110011110111 9
1(
#1490
0(
#1495
b1 <
b1111 ;
1(
#1500
0(
#1505
b10 <
b1 8
1(
#1510
0(
#1515
b11 <
b10 8
1(
#1520
0(
#1525
b110 7
b0 8
b0 <
b11101011111011111101111111110011110111 !
b11101011111011111101111111110011110111 9
1(
#1530
0(
#1535
b1 <
b1000 ;
1(
#1540
0(
#1545
b10 <
b1 8
1(
#1550
0(
#1555
b11 <
b11 8
1(
#1560
0(
#1565
b1000 7
b0 8
b0 <
b111101011111011111101111111110011110111 !
b111101011111011111101111111110011110111 9
1(
#1570
0(
#1575
b1 <
b1101 ;
1(
#1580
0(
#1585
b10 <
b10 8
1(
#1590
0(
#1595
b11 <
1(
#1600
0(
#1605
b10000 :
b0 7
b0 8
b0 <
b1111101011111011111101111111110011110111 !
b1111101011111011111101111111110011110111 9
1(
#1610
0(
#1615
b1 <
b1010 ;
1(
#1620
0(
#1625
b10 <
b1 8
1(
#1630
0(
#1635
b11 <
b11 8
1(
#1640
0(
#1645
b10 7
b0 8
b0 <
b11111101011111011111101111111110011110111 !
b11111101011111011111101111111110011110111 9
1(
#1650
0(
#1655
b1 <
b1 8
b1 ;
1(
#1660
0(
#1665
b10 <
1(
#1670
0(
#1675
b11 <
b10 8
1(
#1680
0(
#1685
b100 7
b0 8
b0 <
1(
#1690
0(
#1695
b1 <
b100 ;
1(
#1700
0(
#1705
b10 <
b10 8
1(
#1710
0(
#1715
b11 <
1(
#1720
0(
#1725
b110 7
b0 8
b0 <
b1011111101011111011111101111111110011110111 !
b1011111101011111011111101111111110011110111 9
1(
#1730
0(
#1735
b1 <
b1010 ;
1(
#1740
0(
#1745
b10 <
b1 8
1(
#1750
0(
#1755
b11 <
b11 8
1(
#1760
0(
#1765
b1000 7
b0 8
b0 <
b11011111101011111011111101111111110011110111 !
b11011111101011111011111101111111110011110111 9
1(
#1770
0(
#1775
b1 <
b1 8
b1110 ;
1(
#1780
0(
#1785
b10 <
1(
#1790
0(
#1795
b11 <
b10 8
1(
#1800
0(
#1805
b10010 :
b0 7
b0 8
b0 <
b111011111101011111011111101111111110011110111 !
b111011111101011111011111101111111110011110111 9
1(
#1810
0(
#1815
b1 <
b1 8
b1101 ;
1(
#1820
0(
#1825
b10 <
b10 8
1(
#1830
0(
#1835
b11 <
1(
#1840
0(
#1845
b10 7
b0 8
b0 <
b1111011111101011111011111101111111110011110111 !
b1111011111101011111011111101111111110011110111 9
1(
#1850
0(
#1855
b1 <
b110 ;
1(
#1860
0(
#1865
b10 <
b1 8
1(
#1870
0(
#1875
b11 <
b10 8
1(
#1880
0(
#1885
b100 7
b0 8
b0 <
b11111011111101011111011111101111111110011110111 !
b11111011111101011111011111101111111110011110111 9
1(
#1890
0(
#1895
b1 <
b1 8
b1011 ;
1(
#1900
0(
#1905
b10 <
1(
#1910
0(
#1915
b11 <
b11 8
1(
#1920
0(
#1925
b110 7
b0 8
b0 <
b111111011111101011111011111101111111110011110111 !
b111111011111101011111011111101111111110011110111 9
1(
#1930
0(
#1935
b1 <
b1 ;
1(
#1940
0(
#1945
b10 <
b1 8
1(
#1950
0(
#1955
b11 <
b10 8
1(
#1960
0(
#1965
b1000 7
b0 8
b0 <
1(
#1970
0(
#1975
b1010 -
b10100 .
b101 /
b1010 0
1"
1(
